<?xml version="1.0" encoding="UTF-8"?>
<svg width="24px" height="24px" viewBox="0 0 24 24" version="1.1" xmlns="http://www.w3.org/2000/svg" xmlns:xlink="http://www.w3.org/1999/xlink">
    <!-- Generator: Sketch 52.2 (67145) - http://www.bohemiancoding.com/sketch -->
    <title>Icon / Linkedin</title>
    <desc>Created with Sketch.</desc>
    <defs>
        <path d="M7,2 L17,2 C19.7614237,2 22,4.23857625 22,7 L22,17 C22,19.7614237 19.7614237,22 17,22 L7,22 C4.23857625,22 2,19.7614237 2,17 L2,7 C2,4.23857625 4.23857625,2 7,2 Z M7.27498515,5.84001133 C6.46880435,5.84001133 5.81713893,6.49356109 5.81713893,7.29911377 C5.81713893,8.10372429 6.46880435,8.75727405 7.27498515,8.75727405 C8.07896755,8.75727405 8.73251731,8.10372429 8.73251731,7.29911377 C8.73251731,6.49356109 8.07896755,5.84001133 7.27498515,5.84001133 Z M6.01687831,17.9562774 L8.53309199,17.9562774 L8.53309199,9.86306391 L6.01687831,9.86306391 L6.01687831,17.9562774 Z M10.1105934,9.86306391 L10.1105934,17.9562774 L12.6249228,17.9562774 L12.6249228,13.9530103 C12.6249228,12.8974694 12.8246621,11.8742761 14.133646,11.8742761 C15.4241006,11.8742761 15.4407455,13.081506 15.4407455,14.0202182 L15.4407455,17.9562774 L17.9550749,17.9562774 L17.9550749,13.5174152 C17.9550749,11.3381832 17.4849336,9.66238237 14.9376284,9.66238237 C13.7140677,9.66238237 12.8934403,10.3332052 12.5577149,10.9697959 L12.5231687,10.9697959 L12.5231687,9.86306391 L10.1105934,9.86306391 Z" id="path-1"></path>
    </defs>
    <g id="Icon-/-Linkedin" stroke="none" stroke-width="1" fill="none" fill-rule="evenodd">
        <mask id="mask-2" fill="white">
            <use xlink:href="#path-1"></use>
        </mask>
        <use id="Linkedin" fill="#000000" fill-rule="nonzero" xlink:href="#path-1"></use>
    </g>
</svg>